{
  "code": 200,
  "message": "ok",
  "status": "SUCCESS",
  "data": {
    "content": [
      {
        "id": 215099,
        "company": 440,
        "companyName": "Living",
        "title": "Living Resort",
        "thumbUrl": "./img/img1.jpg",
        "neighborhood": "Cambucí",
        "city": "São Paulo",
        "state": "SP",
        "address": "Rua Dos Alpes",
        "latitude": -23.5580797,
        "longitude": -46.62018710000001,
        "bedrooms": 2,
        "suites": 1,
        "vacancies": 1,
        "description": "O Living Resort conta com muita área verde, 06 opções de plantas e um lazer completo em mais de 11 mil m² de terreno. Além de complexo comercial pensado para levar a você um mix va",
        "logoUrl": "https://s3.amazonaws.com/s3-moving/images/comp/440.png",
        "pinUrl": null,
        "priceMeter": null,
        "price": 327885,
        "area": 0,
        "statusName": "Em Obras",
        "profile": 2,
        "showReleasesHome": true,
        "quarantine": 0,
        "createdDate": "2016-05-20T22:14:16.000+0000",
        "showHighlightsHome": true
      },
      {
        "id": 215033,
        "company": 173,
        "companyName": "Tecnisa",
        "title": "D/Office",
        "thumbUrl": "./img/img2.jpg",
        "neighborhood": "Centro",
        "city": "Diadema",
        "state": "SP",
        "address": "Av. Fábio Eduardo Ramos Esquível x Rua Orense",
        "latitude": -23.685804,
        "longitude": -46.619088,
        "bedrooms": null,
        "suites": null,
        "vacancies": null,
        "description": "D de Destaque, de Diferencial, de Design e de Desejo. D de D/Office. São espaços projetados para que seus negócios estejam em sintonia com o mundo atual e com você, preparado para ",
        "logoUrl": "https://s3.amazonaws.com/s3-moving/images/comp/173.png",
        "pinUrl": "https://s3.amazonaws.com/s3-moving/images/comp/pin/173.png",
        "priceMeter": 5854.35,
        "price": 269300,
        "area": 46,
        "statusName": "Pronto para morar",
        "profile": 2,
        "showReleasesHome": true,
        "quarantine": 0,
        "createdDate": "2015-09-14T17:33:53.000+0000",
        "showHighlightsHome": true
      },
      {
        "id": 216889,
        "company": 649,
        "companyName": "Tegra Incorporadora",
        "title": "Art Work",
        "thumbUrl": "./img/img3.jpg",
        "neighborhood": "Vila Mariana",
        "city": "São Paulo",
        "state": "SP",
        "address": "Rua Domingos de Morais",
        "latitude": -23.600823,
        "longitude": -46.636426,
        "bedrooms": null,
        "suites": null,
        "vacancies": null,
        "description": "Se você estiver procurando um endereço com potencial de valorização para o seu Tegra comercial, apresentamos o Art Work, a torre coorporativa que mais se destaca na Rua Domingos de",
        "logoUrl": "https://s3.amazonaws.com/s3-moving/images/comp/649.png",
        "pinUrl": null,
        "priceMeter": null,
        "price": null,
        "area": 36,
        "statusName": "Em Construção",
        "profile": 2,
        "showReleasesHome": true,
        "quarantine": 0,
        "createdDate": "2016-10-13T19:31:34.000+0000",
        "showHighlightsHome": true
      },
      {
        "id": 218270,
        "company": 1288,
        "companyName": "RAS Engenharia",
        "title": "Montpellier | Apto",
        "thumbUrl": "./img/img4.jpg",
        "neighborhood": "Saúde",
        "city": "São Paulo",
        "state": "SP",
        "address": "Rua Dias de Toleto",
        "latitude": -23.614498,
        "longitude": -46.634582,
        "bedrooms": 2,
        "suites": 1,
        "vacancies": 1,
        "description": "Você vai se encantar com o maior 2 dormitórios da região da Saúde. \r\nApartamentos prontos para morar com 71m², terraço com churrasqueira. Lazer completo e exclusivo. A apenas 750m ",
        "logoUrl": "https://s3.amazonaws.com/s3-moving/images/comp/1288.png",
        "pinUrl": null,
        "priceMeter": 9295.77,
        "price": 660000,
        "area": 71,
        "statusName": "Pronto",
        "profile": 2,
        "showReleasesHome": true,
        "quarantine": 0,
        "createdDate": "2018-01-30T15:50:01.000+0000",
        "showHighlightsHome": false
      },
      {
        "id": 218352,
        "company": 998,
        "companyName": "Consthruir Engenharia",
        "title": "Bless Ipiranga",
        "thumbUrl": "./img/img5.jpg",
        "neighborhood": "Ipiranga",
        "city": "São Paulo",
        "state": "SP",
        "address": "Rua Agostinho Gomes",
        "latitude": -23.594477,
        "longitude": -46.603442,
        "bedrooms": 1,
        "suites": 1,
        "vacancies": 1,
        "description": "Com visual arquitetônico contemporâneo, plantas diferenciadas e áreas comuns com diversas opções de lazer e conveniência, o Bless Ipiranga vai conquistar você!\r\n\r\nO projeto conta c",
        "logoUrl": "https://s3.amazonaws.com/s3-moving/images/comp/998.png",
        "pinUrl": null,
        "priceMeter": 8607.56,
        "price": 387340,
        "area": 45,
        "statusName": "Lançamento",
        "profile": 2,
        "showReleasesHome": true,
        "quarantine": 0,
        "createdDate": "2017-05-18T17:04:28.000+0000",
        "showHighlightsHome": false
      },
      {
        "id": 208159,
        "company": 291,
        "companyName": "Exto",
        "title": "Ext Campo Belo",
        "thumbUrl": "./img/img6.jpg",
        "neighborhood": "Campo Belo",
        "city": "São Paulo",
        "state": "SP",
        "address": "Rua Vereador José Diniz",
        "latitude": -23.62,
        "longitude": -46.677252,
        "bedrooms": null,
        "suites": null,
        "vacancies": null,
        "description": "Um empreendimento criado para pessoas interessantes, trazendo atmosfera única de bem estar, bons momentos e plena comodidade no dia a dia. O estilo urbano em configuração extraordi",
        "logoUrl": "https://s3.amazonaws.com/s3-moving/images/comp/291.png",
        "pinUrl": "https://s3.amazonaws.com/s3-moving/images/comp/pin/291.png",
        "priceMeter": null,
        "price": null,
        "area": 35,
        "statusName": "Lançamento",
        "profile": 2,
        "showReleasesHome": true,
        "quarantine": 0,
        "createdDate": "2015-12-17T15:58:39.000+0000",
        "showHighlightsHome": true
      }
    ],
    "totalElements": 11,
    "totalPages": 2,
    "last": false,
    "size": 6,
    "number": 0,
    "sort": null,
    "numberOfElements": 6,
    "first": true
  }
}